<?xml version="1.0" encoding="utf-8"?>
<!-- Generator: Adobe Illustrator 18.1.0, SVG Export Plug-In . SVG Version: 6.00 Build 0)  -->
<svg version="1.1" id="Layer_1" xmlns="http://www.w3.org/2000/svg" xmlns:xlink="http://www.w3.org/1999/xlink" x="0px" y="0px"
	 viewBox="0 0 1000 1000" enable-background="new 0 0 1000 1000" xml:space="preserve">
<g>
	<rect x="455" y="602" fill="none" width="10" height="13"/>
	<rect x="430" y="333" fill="none" width="24" height="32"/>
	<rect x="448" y="682" fill="none" width="10" height="11"/>
	<rect x="456" y="531" fill="none" width="11" height="12"/>
	<rect x="398" y="452" fill="none" width="16" height="16"/>
	<rect x="456" y="466" fill="none" width="11" height="13"/>
	<rect x="510" y="583" fill="none" width="7" height="7"/>
	<rect x="505" y="537" fill="none" width="10" height="12"/>
	<rect x="482" y="645" fill="none" width="7" height="7"/>
	<rect x="342" y="413" fill="none" width="16" height="15"/>
	<rect x="638" y="398" fill="none" width="6" height="7"/>
	<polygon fill="none" points="650,343 644,343 644,346.8 644,351 644.9,351 650,351 	"/>
	<polygon fill="none" points="626,278 620.6,278 620,278 620,285 623.4,285 626,285 	"/>
	<rect x="398" y="516" fill="none" width="16" height="16"/>
	<rect x="520" y="408" fill="none" width="11" height="13"/>
	<rect x="374" y="373" fill="none" width="33" height="32"/>
	<rect x="369" y="456" fill="none" width="6" height="7"/>
	<rect x="390" y="317" fill="none" width="17" height="16"/>
	<rect x="583" y="543" fill="none" width="7" height="7"/>
	<rect x="482" y="346" fill="none" width="7" height="7"/>
	<rect x="503" y="470" fill="none" width="10" height="13"/>
	<rect x="509" y="309" fill="none" width="24" height="32"/>
	<rect x="461" y="389" fill="none" width="24" height="24"/>
	<rect x="491" y="708" fill="none" width="7" height="7"/>
	<rect x="430" y="254" fill="none" width="40" height="47"/>
	<rect x="509" y="254" fill="none" width="32" height="32"/>
	<rect x="419" y="411" fill="none" width="7" height="7"/>
	<rect x="587" y="356" fill="none" width="7" height="7"/>
	<rect x="581" y="293" fill="none" width="24" height="32"/>
	<rect x="590" y="444" fill="none" width="6" height="8"/>
	<rect x="557" y="381" fill="none" width="16" height="15"/>
	<rect x="540" y="631" fill="none" width="7" height="7"/>
	<rect x="550" y="479" fill="none" width="6" height="7"/>
	<rect x="562" y="278" fill="none" width="6" height="7"/>
	<path fill="#FFAD48" d="M621.3,782.7l-154.5,0.8c-15.4,0.1-27.8,12.7-27.7,28c0.1,15.4,12.6,27.8,28,27.7l154.5-0.8
		c15.4-0.1,27.8-12.6,27.7-28C649.2,795.1,636.7,782.7,621.3,782.7z"/>
	<path fill="#FFAD48" d="M616.1,857.6l-143.4,0.8c-14.1,0.1-25.4,11.5-25.3,25.6c0.1,14.1,11.6,25.4,25.6,25.3l143.4-0.7
		c14.1-0.1,25.4-11.5,25.3-25.6C641.7,868.9,630.2,857.6,616.1,857.6z"/>
	<path fill="#FFAD48" d="M545,958.3c47.9-0.2,54.5-32.1,54.5-32.1l-106.2,0.6C493.3,926.8,497,958.6,545,958.3z"/>
	<rect x="334" y="214" fill="#FFAD48" width="40" height="40"/>
	<rect x="327" y="134" fill="#FFAD48" width="24" height="32"/>
	<rect x="287" y="182" fill="#FFAD48" width="23" height="24"/>
	<rect x="295" y="277" fill="#FFAD48" width="24" height="24"/>
	<rect x="343" y="68" fill="#FFAD48" width="14" height="15"/>
	<rect x="267" y="121" fill="#FFAD48" width="8" height="9"/>
	<rect x="279" y="357" fill="#FFAD48" width="16" height="16"/>
	<rect x="374" y="174" fill="#FFAD48" width="33" height="40"/>
	<rect x="434" y="52" fill="#FFAD48" width="8" height="9"/>
	<rect x="466" y="93" fill="#FFAD48" width="14" height="15"/>
	<rect x="485" y="150" fill="#FFAD48" width="17" height="16"/>
	<rect x="398" y="102" fill="#FFAD48" width="16" height="16"/>
	<rect x="430" y="142" fill="#FFAD48" width="16" height="24"/>
	<rect x="249" y="204" fill="#FFAD48" width="13" height="14"/>
	<rect x="434" y="192" fill="#FFAD48" width="14" height="16"/>
	<path fill="#FFAD48" d="M664.2,539.8c4.8-70.7-4.8-134.8-19.3-190.8h0.1v-2.2c-9-22.7-14.5-45.8-21.6-60.8H621v-9h-0.4
		c-11.5-32-23.6-51.4-31.6-67.5V238h-40v-32.4c0,0-1.5-0.1-3.5-0.1c-13.3,0.1-28.5,1.3-36.5,3.4V238h-31v-22.4
		c-24,8.2-56,21.2-71,37.9V293h-41v-6.2c-8,13-18,30.2-25.4,46.2H358v32h-31v1c0,15.5-5.9,31.6-5.8,48.2c0,7.9,0.7,15.7,1.7,23.4
		c0.2,2.2,0.5,6.4,0.8,6.4H334v17h-7.1c3.1,15,7.1,26.7,15.1,38.1v0.9h24v24h-11.9c10.2,16,23.1,29.9,34.2,44.1
		c0.1,0.1,1.7-0.1,1.7,0V564h24v31h-11.8c8.8,17,13.5,32,15.8,48h12v16h-10.2c1,16-0.5,34.5-0.4,46.6c0,8.1,3.2,15.8,9.3,22.5
		c-0.7-0.7-1.1-2-1.7-2.7C478,698.2,577.8,636.8,664.2,539.8z M638,398h6v7h-6V398z M358,428h-16v-15h16V428z M390,317h17v16h-17
		V317z M375,463h-6v-7h6V463z M374,405v-32h33v32H374z M414,532h-16v-16h16V532z M414,468h-16v-16h16V468z M458,693h-10v-11h10V693z
		 M430,365v-32h24v32H430z M465,615h-10v-13h10V615z M467,543h-11v-12h11V543z M467,479h-11v-13h11V479z M489,652h-7v-7h7V652z
		 M517,590h-7v-7h7V590z M505,549v-12h10v12H505z M531,421h-11v-13h11V421z M590,550h-7v-7h7V550z M596,452h-6v-8h6V452z M587,363
		v-7h7v7H587z M581,293h24v32h-24V293z M562,278h6v7h-6V278z M557,381h16v15h-16V381z M550,479h6v7h-6V479z M547,631v7h-7v-7H547z
		 M509,254h32v32h-32V254z M509,309h24v32h-24V309z M503,470h10v13h-10V470z M482,346h7v7h-7V346z M485,389v24h-24v-24H485z
		 M426,418h-7v-7h7V418z M430,301v-47h40v47H430z"/>
	<path fill="#FFAD48" d="M629,218.1c-16-4-24-7.1-40-9.2v0C605,211.1,613,214.2,629,218.1L629,218.1z"/>
	<rect x="357" y="571" fill="#FFAD48" width="14" height="16"/>
	<path fill="#FFAD48" d="M773.8,411.8c0-5.3-0.8-10.5-0.8-15.7c0,0,0,0,0,0C773,401.3,773.7,406.5,773.8,411.8z"/>
	<rect x="317" y="536" fill="#FFAD48" width="8" height="8"/>
	<path fill="#FFAD48" d="M772.4,392.3C772.4,392.3,772.4,392.4,772.4,392.3c-0.4-3.8-0.9-7.7-1.5-11.6c0,0,0,0,0,0
		C771.5,384.6,771.9,388.4,772.4,392.3z"/>
	<rect x="486" y="29" fill="#FFAD48" width="7" height="8"/>
	<rect x="214" y="280" fill="#FFAD48" width="9" height="9"/>
	<path fill="#FFAD48" d="M769.3,381c0,0-0.6,0-0.6,0C757.4,317,716,260.4,653,230.4v0.1C716,260.5,758,317,769.3,381z"/>
	<rect x="251" y="313" fill="#FFAD48" width="13" height="14"/>
	<rect x="239" y="382" fill="#FFAD48" width="11" height="11"/>
	<rect x="298" y="419" fill="#FFAD48" width="14" height="16"/>
	<rect x="255" y="453" fill="#FFAD48" width="10" height="12"/>
	<rect x="289" y="461" fill="#FFAD48" width="7" height="7"/>
	<rect x="282" y="404" fill="#FFAD48" width="7" height="8"/>
	<rect x="262" y="246" fill="#FFAD48" width="13" height="14"/>
	<rect x="514" y="176" fill="#FFAD48" width="15" height="15"/>
	<rect x="581" y="92" fill="#FFAD48" width="8" height="9"/>
	<rect x="531" y="54" fill="#FFAD48" width="8" height="8"/>
	<rect x="602" y="45" fill="#FFAD48" width="6" height="9"/>
	<rect x="605" y="148" fill="#FFAD48" width="7" height="9"/>
	<rect x="650" y="170" fill="#FFAD48" width="13" height="15"/>
	<rect x="645" y="113" fill="#FFAD48" width="7" height="8"/>
	<rect x="549" y="150" fill="#FFAD48" width="16" height="16"/>
	<rect x="705" y="216" fill="#FFAD48" width="7" height="8"/>
	<rect x="516" y="106" fill="#FFAD48" width="14" height="14"/>
	<path fill="#FA8A3B" d="M662.2,733.7c-0.7,0.7-1.6,1.3-2.4,1.9C660.7,735,661.5,734.4,662.2,733.7z"/>
	<path fill="#FA8A3B" d="M649.3,742.2c-1.5,0.7-3.1,1.3-4.7,1.9C646.2,743.5,647.8,742.9,649.3,742.2z"/>
	<path fill="#FA8A3B" d="M656.3,738.3c-1.1,0.7-2.4,1.4-3.6,2C653.9,739.7,655.2,739.1,656.3,738.3z"/>
	<path fill="#FA8A3B" d="M773,396.1C773,396.1,773,396.1,773,396.1c0-1.3-0.4-2.5-0.5-3.8c0,0,0,0,0-0.1
		C772.6,393.6,773,394.8,773,396.1z"/>
	<path fill="#FA8A3B" d="M770.8,380.8C770.8,380.8,770.8,380.8,770.8,380.8c-0.1-0.4-0.1-0.9-0.2-1.3c0,0,0,0.1-0.1,0.1c0,0,0,0,0,0
		C770.7,380,770.7,380.4,770.8,380.8z"/>
	<path fill="#FA8A3B" d="M641.5,745.3c-1.9,0.6-3.8,1.2-5.8,1.7C637.7,746.5,639.6,746,641.5,745.3z"/>
	<path fill="#FA8A3B" d="M664.2,540.8C577.8,637.8,478,698.6,427,725.9c0.6,0.7,1.1,1.5,1.7,2.2c4.6,6.9,20,21.8,69.5,23.1
		c36.8,0.9,81.2,4.3,116.2,0c-3.2,0.4-6.4,0.7-9.7,1C642.5,679,659.7,607.3,664.2,540.8z M498,715h-7v-7h7V715z"/>
	<path fill="#FA8A3B" d="M623.8,749.7c-2.7,0.5-5.5,0.9-8.3,1.3C618.4,750.7,621.1,750.2,623.8,749.7z"/>
	<path fill="#FA8A3B" d="M632.9,747.8c-2.3,0.6-4.6,1.1-7,1.5C628.3,748.9,630.7,748.4,632.9,747.8z"/>
	<path opacity="0.61" fill="#00A9DE" d="M667,728.2c-1.4,2-3,3.8-4.8,5.5C664,732,665.7,730.2,667,728.2z"/>
	<path opacity="0.61" fill="#00A9DE" d="M644.7,744.1c-1.1,0.4-2.1,0.8-3.2,1.2C642.6,745,643.6,744.5,644.7,744.1z"/>
	<path opacity="0.61" fill="#00A9DE" d="M659.9,735.6c-1.2,0.9-2.3,1.9-3.6,2.8C657.6,737.5,658.7,736.5,659.9,735.6z"/>
	<path opacity="0.61" fill="#00A9DE" d="M635.7,747.1c-0.9,0.3-1.8,0.5-2.8,0.7C633.9,747.6,634.8,747.3,635.7,747.1z"/>
	<path opacity="0.61" fill="#00A9DE" d="M652.7,740.4c-1.1,0.6-2.2,1.3-3.4,1.8C650.5,741.6,651.6,741,652.7,740.4z"/>
	<path opacity="0.61" fill="#00A9DE" d="M615.6,751c-0.4,0-0.8,0.1-1.2,0.1C614.8,751.1,615.2,751.1,615.6,751z"/>
	<path opacity="0.61" fill="#00A9DE" d="M625.9,749.4c-0.7,0.1-1.4,0.3-2.1,0.4C624.5,749.6,625.2,749.5,625.9,749.4z"/>
	<path fill="#FFAD48" d="M772.4,392.3c-0.4-3.9-0.9-7.7-1.5-11.5C771.5,384.6,771.9,388.4,772.4,392.3z"/>
	<path opacity="0.61" fill="#00A9DE" d="M772.4,392.3c-0.4-3.9-0.9-7.7-1.5-11.5C771.5,384.6,771.9,388.4,772.4,392.3z"/>
	<path fill="#FFAD48" d="M629,277v9h-5.6c7.1,15,12.6,38.1,21.6,60.8V341h8v8h-8.1c14.5,56,24.1,120.2,19.3,190.8
		c40.6-45.6,77.2-98.8,105.4-160.7C758.2,314.5,716,260.5,653,230.5V254h-24v-35.8c-16-4-24-7.1-40-9.2v0.5
		c8,16.1,20.1,35.5,31.6,67.5H629z"/>
	<path opacity="0.61" fill="#00A9DE" d="M629,277v9h-5.6c7.1,15,12.6,38.1,21.6,60.8V341h8v8h-8.1c14.5,56,24.1,120.2,19.3,190.8
		c40.6-45.6,77.2-98.8,105.4-160.7C758.2,314.5,716,260.5,653,230.5V254h-24v-35.8c-16-4-24-7.1-40-9.2v0.5
		c8,16.1,20.1,35.5,31.6,67.5H629z"/>
	<path fill="#FFAD48" d="M773.6,411.8c0-5.3-0.3-10.5-0.8-15.7C773.3,401.3,773.5,406.5,773.6,411.8z"/>
	<path opacity="0.61" fill="#00A9DE" d="M773.6,411.8c0-5.3-0.3-10.5-0.8-15.7C773.3,401.3,773.5,406.5,773.6,411.8z"/>
	<path fill="#FA8A3B" d="M772.8,396.1c-0.1-1.3-0.3-2.5-0.5-3.8c-0.4-3.9-0.9-7.7-1.5-11.5c-0.1-0.4-0.2-0.8-0.2-1.2
		c-28.1,61.9-65.8,115.5-106.4,161.1c-4.5,66.5-21.6,138.2-59.5,211.4c3.3-0.3,6.5-0.6,9.7-1c0.4,0,0.8-0.1,1.2-0.1
		c2.8-0.4,5.6-0.8,8.3-1.3c0.7-0.1,1.4-0.3,2.1-0.4c2.4-0.5,4.7-1,7-1.5c0.9-0.2,1.8-0.5,2.8-0.7c2-0.5,3.9-1.1,5.8-1.7
		c1.1-0.4,2.1-0.8,3.2-1.2c1.6-0.6,3.2-1.2,4.7-1.9c1.2-0.6,2.3-1.2,3.4-1.8c1.2-0.7,2.4-1.3,3.6-2c1.3-0.8,2.4-1.8,3.6-2.8
		c0.8-0.6,1.6-1.2,2.4-1.9c1.8-1.7,3.4-3.5,4.8-5.5c7-7.1,10.4-15.4,10.4-24c-0.2-29.9-10-83.8,31.1-138.1
		c23.6-31.1,49.3-63.3,58.9-106.1c4-15.5,6.2-31.6,6.2-48.2C773.5,406.5,773.3,401.3,772.8,396.1z"/>
	<path opacity="0.61" fill="#00A9DE" d="M772.8,396.1c-0.1-1.3-0.3-2.5-0.5-3.8c-0.4-3.9-0.9-7.7-1.5-11.5c-0.1-0.4-0.2-0.8-0.2-1.2
		c-28.1,61.9-65.8,115.5-106.4,161.1c-4.5,66.5-21.6,138.2-59.5,211.4c3.3-0.3,6.5-0.6,9.7-1c0.4,0,0.8-0.1,1.2-0.1
		c2.8-0.4,5.6-0.8,8.3-1.3c0.7-0.1,1.4-0.3,2.1-0.4c2.4-0.5,4.7-1,7-1.5c0.9-0.2,1.8-0.5,2.8-0.7c2-0.5,3.9-1.1,5.8-1.7
		c1.1-0.4,2.1-0.8,3.2-1.2c1.6-0.6,3.2-1.2,4.7-1.9c1.2-0.6,2.3-1.2,3.4-1.8c1.2-0.7,2.4-1.3,3.6-2c1.3-0.8,2.4-1.8,3.6-2.8
		c0.8-0.6,1.6-1.2,2.4-1.9c1.8-1.7,3.4-3.5,4.8-5.5c7-7.1,10.4-15.4,10.4-24c-0.2-29.9-10-83.8,31.1-138.1
		c23.6-31.1,49.3-63.3,58.9-106.1c4-15.5,6.2-31.6,6.2-48.2C773.5,406.5,773.3,401.3,772.8,396.1z"/>
</g>
</svg>
